Un-normalized count data for mouse retina RNA-seq samples — gene_expression • OSD758
…
    Details

    The dataset comprises 35 samples and expression counts for ~57,000 genes
(Ensembl IDs).

    See also

    samples()

    Examples

# Un-normalized counts in long format
gene_expression()
#> # A tibble: 1,989,400 × 4
#>    sample_id           ensembl_gen_id     gene_symbol counts
#>    <chr>               <chr>              <chr>        <int>
#>  1 MHU-8_RTN_FLT_FLT02 ENSMUSG00000000001 Gnai3         2132
#>  2 MHU-8_RTN_FLT_FLT02 ENSMUSG00000000003 Pbsn             0
#>  3 MHU-8_RTN_FLT_FLT02 ENSMUSG00000000028 Cdc45          109
#>  4 MHU-8_RTN_FLT_FLT02 ENSMUSG00000000031 H19             29
#>  5 MHU-8_RTN_FLT_FLT02 ENSMUSG00000000037 Scml2           92
#>  6 MHU-8_RTN_FLT_FLT02 ENSMUSG00000000049 Apoh            22
#>  7 MHU-8_RTN_FLT_FLT02 ENSMUSG00000000056 Narf          3614
#>  8 MHU-8_RTN_FLT_FLT02 ENSMUSG00000000058 Cav2          3464
#>  9 MHU-8_RTN_FLT_FLT02 ENSMUSG00000000078 Klf6          2464
#> 10 MHU-8_RTN_FLT_FLT02 ENSMUSG00000000085 Scmh1         2779
#> # ℹ 1,989,390 more rows
…
