Sample metadata table for RNA-seq experiment aboard ISS and on Earth — samples • OSD758
…
This variable supports quantitative modeling of gravity-dependent effects.

gravity_class
Effective gravity categories as a factor variable.

weight_at_launch
Body weight of the animal at the time of launch (or analogous time point for ground controls), in grams.

weight_at_euthanasia
Body weight of the animal at euthanasia, in grams. Used to assess weight changes across experimental conditions.

    Examples

samples()
#> # A tibble: 35 × 10
#>    sample_id        organism sex   matrix spacecraft acceleration_source gravity
#>    <chr>            <chr>    <fct> <chr>  <fct>      <fct>                 <dbl>
#>  1 MHU-8_RTN_FLT_F… Mus mus… male  Right… ISS        Centrifugal Accele…  3.3e-1
#>  2 MHU-8_RTN_FLT_F… Mus mus… male  Right… ISS        Centrifugal Accele…  6.6e-1
#>  3 MHU-8_RTN_FLT_F… Mus mus… male  Right… ISS        Centrifugal Accele…  1  e+0
#>  4 MHU-8_RTN_FLT_F… Mus mus… male  Right… ISS        Orbital Free Fall    1  e-6
#>  5 MHU-8_RTN_FLT_F… Mus mus… male  Right… ISS        Centrifugal Accele…  3.3e-1
#>  6 MHU-8_RTN_FLT_F… Mus mus… male  Right… ISS        Centrifugal Accele…  6.6e-1
#>  7 MHU-8_RTN_FLT_F… Mus mus… male  Right… ISS        Centrifugal Accele…  1  e+0
#>  8 MHU-8_RTN_FLT_F… Mus mus… male  Right… ISS        Orbital Free Fall    1  e-6
#>  9 MHU-8_RTN_FLT_F… Mus mus… male  Right… ISS        Centrifugal Accele…  3.3e-1
#> 10 MHU-8_RTN_FLT_F… Mus mus… male  Right… ISS        Centrifugal Accele…  6.6e-1
#> # ℹ 25 more rows
#> # ℹ 3 more variables: gravity_class <fct>, weight_at_launch <dbl>,
#> #   weight_at_euthanasia <dbl>
…
